<svg xmlns="http://www.w3.org/2000/svg" width="318.395" height="283.914" viewBox="0 0 318.395 283.914">
  <path id="Polygon_1" data-name="Polygon 1" d="M35.475,0,70.95,61.362H0Z" transform="translate(74.531 127.806) rotate(180)" fill="#b5e3d8"/>
  <rect id="Rectangle_18" data-name="Rectangle 18" width="54" height="129" transform="translate(252.531 57.191)" fill="#b5e3d8"/>
  <ellipse id="Ellipse_7" data-name="Ellipse 7" cx="62.5" cy="89" rx="62.5" ry="89" transform="translate(96.531 34.191)" fill="#ffcf81"/>
  <g id="Group_3583" data-name="Group 3583" transform="translate(-382.026 -49.443)">
    <path id="Path_2737" data-name="Path 2737" d="M595.873,414.355c-2.012,1.367-4.836,1.116-5.738.35-.386-.326-.507-.29-.272.091.51.821,1.452,2.081,2.458,2.165,1.984,0,2.789-.995,4.373-2.476C597.355,413.866,596.671,413.812,595.873,414.355Z" transform="translate(-42.888 -159.939)" fill="#a7a7a7"/>
    <path id="Path_2738" data-name="Path 2738" d="M563.643,414.7c-.9.766-3.726,1.018-5.738-.35-.8-.543-1.482-.489-.822.129,1.584,1.482,2.388,2.476,4.373,2.476,1.006-.084,1.948-1.344,2.458-2.165C564.15,414.415,564.029,414.379,563.643,414.7Z" transform="translate(-28.443 -159.939)" fill="#a7a7a7"/>
    <path id="Path_2739" data-name="Path 2739" d="M578.226,250.173a1.38,1.38,0,1,0,1.016,1.331A1.206,1.206,0,0,0,578.226,250.173Z" transform="translate(-37.389 -88.069)" fill="#a7a7a7"/>
    <path id="Path_2740" data-name="Path 2740" d="M566.2,88.452c.318.114.835.5,1.183.322.627-.32-.071-1.051-.383-1.225a7.78,7.78,0,0,0-3.971-.851,5.7,5.7,0,0,0-3.532,1.312c-.216.13-.451.525-.229.668s.618-.27.815-.354a7.4,7.4,0,0,1,2.022-.5A9.368,9.368,0,0,1,566.2,88.452Z" transform="translate(-29.476 -16.343)" fill="#a7a7a7"/>
    <path id="Path_2741" data-name="Path 2741" d="M566.877,92.658a3.469,3.469,0,0,1,.57.632c.131.194.267.332.414.077.178-.309-.5-1.119-.745-1.334-1.584-1.368-4.488-1.153-5.622.6-.176.313-.21.775.132.8.227.015.442-.213.643-.42a2.974,2.974,0,0,1,1.225-.806,2.351,2.351,0,0,0-.087.636c.006.925.523,1.661,1.429,1.637.978-.026,1.415-.789,1.408-1.715a2.249,2.249,0,0,0-.063-.5A2.339,2.339,0,0,1,566.877,92.658Z" transform="translate(-30.437 -18.296)" fill="#a7a7a7"/>
    <path id="Path_2742" data-name="Path 2742" d="M585.169,88.774c.349.178.866-.208,1.183-.322a9.368,9.368,0,0,1,4.1-.632,7.407,7.407,0,0,1,2.022.5c.2.084.6.491.814.354s-.012-.538-.228-.668a5.7,5.7,0,0,0-3.532-1.312,7.777,7.777,0,0,0-3.971.851C585.24,87.723,584.542,88.454,585.169,88.774Z" transform="translate(-40.771 -16.343)" fill="#a7a7a7"/>
    <path id="Path_2743" data-name="Path 2743" d="M586.95,92.034c-.248.214-.923,1.025-.745,1.334.146.255.283.116.414-.077a3.473,3.473,0,0,1,.57-.632,2.342,2.342,0,0,1,.7-.4,2.249,2.249,0,0,0-.063.5c-.007.927.43,1.689,1.408,1.715.906.025,1.423-.712,1.429-1.637a2.337,2.337,0,0,0-.087-.636,2.975,2.975,0,0,1,1.225.806c.2.208.416.435.644.42.342-.021.308-.483.132-.8C591.438,90.881,588.534,90.666,586.95,92.034Z" transform="translate(-41.323 -18.296)" fill="#a7a7a7"/>
    <path id="Path_2744" data-name="Path 2744" d="M575.642,93.082c.017.051.031.093.043.124A6.4,6.4,0,0,1,576,95a11.5,11.5,0,0,1-.063,1.914c-.024.219-.11.821-.216,1.288l-.033.148a.087.087,0,0,0,.037.091.09.09,0,0,0,.047.013.087.087,0,0,0,.051-.017l.122-.091c.624-.469.768-2.1.783-2.287a5.857,5.857,0,0,0-.75-3.7.35.35,0,0,0-.449-.176.226.226,0,0,0-.108.292C575.517,92.715,575.6,92.945,575.642,93.082Z" transform="translate(-36.595 -18.738)" fill="#a7a7a7"/>
    <path id="Path_2745" data-name="Path 2745" d="M574.171,107.554a1.206,1.206,0,0,0,.2.433,1.043,1.043,0,0,0,.718.392c.022,0,.043,0,.063,0a.877.877,0,0,0,.2-.022.663.663,0,0,1,.227.027c.2.052.374.1.466.135.032.017.063.035.1.05a2.165,2.165,0,0,0,.964.227,2.35,2.35,0,0,0,.947-.206l.119-.05h0a.122.122,0,0,0,.039-.007c.072-.026.281-.089.512-.15a.606.606,0,0,1,.3,0,.993.993,0,0,0,.2.047.742.742,0,0,0,.1.006,1.019,1.019,0,0,0,.531-.158.952.952,0,0,0,.4-.6.709.709,0,0,0,.013-.242l-.007-.063h0a.389.389,0,0,0-.168-.265.172.172,0,0,0-.138,0,.355.355,0,0,0-.168.2l-.027.071a.125.125,0,0,1-.024.041.308.308,0,0,0-.027.042.538.538,0,0,1-.2.185.653.653,0,0,1-.064.026.465.465,0,0,0-.223-.223.322.322,0,0,0-.07-.019l-.024,0a.294.294,0,0,0-.144.012,1.333,1.333,0,0,0-.427.217,1.409,1.409,0,0,0-.2.158.193.193,0,0,0-.023.005,4.292,4.292,0,0,1-1.243.249,2.4,2.4,0,0,1-.764-.085l-.109-.028a1.691,1.691,0,0,1-.17-.048l-.033-.012a1.342,1.342,0,0,0-.29-.245,1.31,1.31,0,0,0-.411-.21.328.328,0,0,0-.153-.015l-.023,0a.319.319,0,0,0-.07.019.455.455,0,0,0-.139.1.449.449,0,0,1-.041-.04.648.648,0,0,1-.145-.338l-.007-.044a.563.563,0,0,1-.011-.124l0-.08a.262.262,0,0,0-.149-.231c-.1-.044-.242-.013-.352.212a.859.859,0,0,0-.067.258A1.209,1.209,0,0,0,574.171,107.554Z" transform="translate(-36.045 -25.106)" fill="#a7a7a7"/>
    <path id="Path_2746" data-name="Path 2746" d="M579.526,118.643a6.807,6.807,0,0,1-3.919-.006c-.264-.075-.462-.04-.52.091-.017.039-.056.176.166.31l.073.045a3.858,3.858,0,0,0,2.22.692h.052a3.8,3.8,0,0,0,2.19-.682l.09-.055c.223-.135.184-.273.166-.312C580,118.624,579.841,118.548,579.526,118.643Z" transform="translate(-36.452 -30.341)" fill="#a7a7a7"/>
    <path id="Path_2747" data-name="Path 2747" d="M575.005,115.481a3.071,3.071,0,0,0,.692.1h.042a3.553,3.553,0,0,0,.714-.074,8.608,8.608,0,0,1,2.2,0,2.169,2.169,0,0,0,1.437-.251c.017-.011.033-.021.048-.029a.611.611,0,0,0,.327-.561.308.308,0,0,0-.123-.207.519.519,0,0,0-.385-.066l-.021.006a3.511,3.511,0,0,1-1.275.281c-.34.011-.7-.008-1.056-.026-.214-.011-.427-.022-.633-.026h-.026a2.655,2.655,0,0,0-.635.042,1.066,1.066,0,0,0-.261.08.519.519,0,0,1-.248.054h-.014a1.066,1.066,0,0,1-.358-.06c-.06-.018-.13-.038-.22-.06a2.741,2.741,0,0,0-.836-.054,5.783,5.783,0,0,1-2.821-.232l-.026-.006a.4.4,0,0,0-.412.242.413.413,0,0,0,.053.4,2.081,2.081,0,0,0,1.609.449,7.836,7.836,0,0,0,1.07-.015A4.848,4.848,0,0,1,575.005,115.481Z" transform="translate(-34.705 -28.495)" fill="#a7a7a7"/>
    <path id="Path_2748" data-name="Path 2748" d="M650.132,297.283a9.1,9.1,0,0,1-4.792-3.69.18.18,0,0,0-.332.117,4.083,4.083,0,0,0,1.79,2.6,9.942,9.942,0,0,0,3.235,1.313.179.179,0,0,0,.1-.344Z" transform="translate(-67.135 -107.081)" fill="#a7a7a7"/>
    <path id="Path_2749" data-name="Path 2749" d="M510.2,293.517a.18.18,0,0,0-.214.076,9.1,9.1,0,0,1-4.792,3.69.18.18,0,0,0,.065.347.185.185,0,0,0,.035,0,9.944,9.944,0,0,0,3.235-1.313,4.082,4.082,0,0,0,1.79-2.6A.179.179,0,0,0,510.2,293.517Z" transform="translate(-5.741 -107.081)" fill="#a7a7a7"/>
    <path id="Path_2750" data-name="Path 2750" d="M558.456,148.445c3.776,1.066,10.674,1.635,8.59.729-1.765-.769-6.569-.941-8.55-.979C558.015,148.185,557.993,148.315,558.456,148.445Z" transform="translate(-29.015 -43.326)" fill="#a7a7a7"/>
    <path id="Path_2751" data-name="Path 2751" d="M592.92,148.445c.462-.131.441-.26-.041-.251-1.981.039-6.784.21-8.55.979C582.246,150.08,589.145,149.512,592.92,148.445Z" transform="translate(-40.344 -43.326)" fill="#a7a7a7"/>
    <path id="Path_2752" data-name="Path 2752" d="M578.867,153.174c.419-.237.223-.528-.255-.594a2.437,2.437,0,0,1-.535-.135c-.451-.171-.622-.081-.351.317C577.985,153.139,578.37,153.456,578.867,153.174Z" transform="translate(-37.559 -45.155)" fill="#a7a7a7"/>
    <path id="Path_2753" data-name="Path 2753" d="M590.013,193.092l-.009-.015-.01-.015a35.172,35.172,0,0,1-1.812-3.31,30.631,30.631,0,0,0-1.867-3.373,12.4,12.4,0,0,0-4.72-4.195,3.232,3.232,0,0,1-1.62-2.15c-.411-1.846-.788-4.287-1.187-6.871-.561-3.643-1.2-7.771-2.135-11.679-.674-2.811-1.328-5.038-1.9-7a56.613,56.613,0,0,1-2.542-12.418c-.6-6.492-1.617-16.787-2.109-21.734l-.209-2.111c-.823-7.815-4.122-12.655-9.8-14.392-.447-.136-1.058-.306-1.765-.5-2.719-.755-7.779-2.162-9.347-3.476a2.311,2.311,0,0,1-.724-1.749l-.081-6.283a19.247,19.247,0,0,0,4.047-4.017,19.314,19.314,0,0,0,1.84-4.6c1.286-.464,2.751-2.318,3.391-4.478.622-2.1.507-3.961-.307-4.977a2.328,2.328,0,0,0-1.211-.786l0-.014c.077-.677.183-1.6.267-3.351v-.03c.1-6.773-1.695-10.741-4.345-13.062a7.509,7.509,0,0,0-1.637-3.493c-1.917-2.3-5.107-3.567-8.981-3.567a11.586,11.586,0,0,0-9.274,4.089,7.375,7.375,0,0,0-1.447,3.256c-2.9,2.679-4.346,6.855-4.41,12.754v.029A24.34,24.34,0,0,0,526.418,73a2.34,2.34,0,0,0-1.1.749c-.815,1.016-.93,2.877-.307,4.977.634,2.137,2.074,3.978,3.351,4.468a19.806,19.806,0,0,0,1.833,4.2,19.78,19.78,0,0,0,4.089,4.354l-.083,6.344a2.322,2.322,0,0,1-.724,1.763c-1.568,1.313-6.628,2.72-9.347,3.475-.707.2-1.317.366-1.765.5-5.682,1.737-8.981,6.577-9.8,14.385-.069.7-.177,1.77-.313,3.109-.508,5.042-1.456,14.429-2.006,20.746a54.712,54.712,0,0,1-2.529,12.4c-.582,1.968-1.241,4.2-1.917,7.017-.937,3.908-1.574,8.037-2.135,11.679-.4,2.585-.775,5.025-1.187,6.871a3.229,3.229,0,0,1-1.619,2.15,12.4,12.4,0,0,0-4.72,4.195,30.681,30.681,0,0,0-1.866,3.372,35.131,35.131,0,0,1-1.813,3.311l-.01.015-.009.015a1.948,1.948,0,0,0-.272,2,1.665,1.665,0,0,0,1.562.81h.065a3.166,3.166,0,0,0,2-.784,36.811,36.811,0,0,0-1.609,7.02c-.179,1.64.222,2.883,1.13,3.551a2.384,2.384,0,0,0,2.19,1.455,3.2,3.2,0,0,0,1.383-.352.232.232,0,0,0,.1-.039,2.1,2.1,0,0,0,.886.19,3.784,3.784,0,0,0,2.693-1.443,3.951,3.951,0,0,0,3.055-1.918,20.462,20.462,0,0,0,2.06-4.583c.147-.42.292-.834.443-1.234.908-2.412,2.449-7.024,2.567-10.823a13.541,13.541,0,0,1,.579-3.609c1.645-5.268,2.954-8.941,4.005-11.892a87.583,87.583,0,0,0,3.554-11.7c.813-3.68,1.536-8.477,2.374-14.031l.364-2.407,0-.015,0-.015c.409-3.362.955-7.322,1.429-10.458.122.172.248.342.381.506,1.461,6.751,2.084,16.589,2.31,21.277.119,2.489-1.307,5.611-3.112,9.564a69.738,69.738,0,0,0-5.93,17.318c-2.331,13.1-.882,22.154,1.255,32.634,1.321,6.479,6.277,33.651,5.909,38.239l0,.047v.047c.037,3.024-.2,7-.383,10.2-.126,2.143-.235,3.993-.235,5.087-.008,11.434,2.542,21.31,4.592,29.245.263,1.017.516,2,.754,2.947,2.086,8.3,2.265,13.016,2.145,16.875-.213,1.057-3.858,6.987-5.508,9.367l-.008.013-.009.013a3.568,3.568,0,0,0-.6,3.1,3.46,3.46,0,0,0,1.834,1.968,7.967,7.967,0,0,0,2.983,1.041c.168.039.335.088.509.139A7.122,7.122,0,0,0,532,332.8c.1,0,.192,0,.29-.006a6.1,6.1,0,0,0,2.354.479,6.3,6.3,0,0,0,1.2-.116c.191.014.4.045.624.078a7.967,7.967,0,0,0,1.2.115,4.076,4.076,0,0,0,.719-.061,2.9,2.9,0,0,0,2.692-2.756c.094-.927.139-2.189.147-3.569.007,1.379.052,2.642.146,3.569a2.924,2.924,0,0,0,2.608,2.755,4.442,4.442,0,0,0,.813.072,7.766,7.766,0,0,0,1.247-.124c.215-.034.42-.067.6-.08a5.733,5.733,0,0,0,.987.082,6.482,6.482,0,0,0,2.392-.447c.1,0,.209.005.311.005a7.509,7.509,0,0,0,2.791-.509,8.49,8.49,0,0,0,3.031-1.068,3.35,3.35,0,0,0,1.76-1.9,3.588,3.588,0,0,0-.614-3.119l-.008-.013-.009-.013c-1.649-2.381-5.294-8.312-5.507-9.368-.121-3.859.058-8.578,2.145-16.874.238-.947.492-1.93.754-2.947,2.05-7.935,4.6-17.811,4.592-29.245,0-1.093-.109-2.944-.235-5.087-.187-3.2-.42-7.173-.383-10.2V252.4l0-.047c-.368-4.588,4.588-31.76,5.909-38.239,2.137-10.48,3.586-19.537,1.255-32.634a54.51,54.51,0,0,0-2.293-8.6l.013-.006a.893.893,0,0,0-.077-.172c-1.143-3.216-2.434-6.048-3.574-8.543-1.806-3.953-3.232-7.076-3.112-9.556a184.464,184.464,0,0,1,2.475-21.453c.061-.077.114-.161.171-.24l.049-.067c.473,3.132,1.017,7.078,1.424,10.428l0,.015,0,.015.363,2.4c.838,5.555,1.561,10.353,2.373,14.034a87.763,87.763,0,0,0,3.554,11.7c1.052,2.951,2.361,6.624,4.006,11.892a13.538,13.538,0,0,1,.579,3.609c.118,3.8,1.659,8.412,2.567,10.823.151.4.3.814.443,1.234a20.441,20.441,0,0,0,2.06,4.583,3.951,3.951,0,0,0,3.055,1.918,3.784,3.784,0,0,0,2.693,1.443,2.1,2.1,0,0,0,.886-.19.233.233,0,0,0,.1.039,3.2,3.2,0,0,0,1.383.352,2.384,2.384,0,0,0,2.19-1.455c.908-.668,1.308-1.911,1.13-3.551a36.813,36.813,0,0,0-1.609-7.02,3.169,3.169,0,0,0,2,.784h.065a1.665,1.665,0,0,0,1.561-.81A1.948,1.948,0,0,0,590.013,193.092ZM556.585,78.468a7.224,7.224,0,0,1-2.194,3.5,59.365,59.365,0,0,0,1.434-8.087,1.378,1.378,0,0,1,.613.43C557.059,75.083,557.116,76.677,556.585,78.468ZM532.674,54.078a10.691,10.691,0,0,1,8.561-3.737c3.6,0,6.548,1.152,8.291,3.244a6.621,6.621,0,0,1,1.151,2.026c-2.67-1.742-5.957-2.2-9.046-2.288h-.772c-3.942.111-6.878.914-9.154,2.5A6.817,6.817,0,0,1,532.674,54.078Zm8.188.286h.741c6.743.19,13.777,2.2,13.594,15.219-.008.174-.017.328-.026.485-.7-5.414-2.882-8.644-6.513-9.614a8.649,8.649,0,0,0-4.372-.1,14.569,14.569,0,0,1-3.065.289,12.6,12.6,0,0,1-2.988-.327,7.633,7.633,0,0,0-4.45.14c-1.511.466-5.743,1.777-6.638,10.061-.018-.3-.033-.61-.04-.937C527.242,56.895,534.109,54.554,540.861,54.365Zm-14.993,24.1c-.53-1.791-.474-3.384.147-4.16a1.391,1.391,0,0,1,.547-.411,48.915,48.915,0,0,0,1.41,8A7.344,7.344,0,0,1,525.868,78.468Zm5.167,8.364c-1.093-1.8-2.582-5.349-3.361-11.928a.36.36,0,0,0,.046-.171c0-.142,0-.307,0-.493-.033-3.035-.121-11.1,6.284-13.073a6.929,6.929,0,0,1,4.084-.123,13.326,13.326,0,0,0,3.136.342,15.188,15.188,0,0,0,3.195-.3,7.937,7.937,0,0,1,4.052.085c4.147,1.107,6.238,5.554,6.215,13.218v.234a.363.363,0,0,0,.033.15c-.749,5.908-2.154,10.583-3.334,12.454-1.426,2.26-6.191,5.633-7.269,6.163a6.533,6.533,0,0,1-5.769,0C537.264,92.86,532.695,89.569,531.035,86.832Zm3.094,13.8a3.305,3.305,0,0,0,1.087-2.53l.072-5.551a19.8,19.8,0,0,0,2.636,1.785,7.481,7.481,0,0,0,6.607,0,23.2,23.2,0,0,0,2.629-1.748l.072,5.513a3.305,3.305,0,0,0,1.087,2.53c1.176.986,3.827,1.934,6.36,2.706,0,2.1-.3,10.6-4.992,15.4a11.284,11.284,0,0,1-8.4,3.334h-.131a11.284,11.284,0,0,1-8.4-3.334c-4.69-4.794-4.991-13.3-4.992-15.4C530.3,102.563,532.953,101.615,534.129,100.629Zm-7.135,2.939c0,2.539.376,10.846,5.191,15.767a12.061,12.061,0,0,0,8.974,3.58h.128a12.062,12.062,0,0,0,8.973-3.58c4.814-4.921,5.195-13.229,5.193-15.767,1.167.344,2.268.646,3.147.891h-.079c0,6.782.585,15.571,1.252,18.808l.011,0c.06.355.12.711.175,1.067a10.986,10.986,0,0,1-.578,6.671.888.888,0,0,0-.874.708c-.072.316-.143.646-.213.982a7.312,7.312,0,0,1-2.809,2.1,9.4,9.4,0,0,1-6.077.39c-1.139-.329-2.476.1-1.066.637a10.349,10.349,0,0,0,7.253.02,8.027,8.027,0,0,0,2.356-1.368l0,.008h0c-.265,1.478-.507,3.068-.725,4.688-7.584-.441-22.32-.809-31.842-.021-.209-1.56-.45-3.1-.724-4.551a7.871,7.871,0,0,0,2.192,1.244,10.169,10.169,0,0,0,7.253-.02c1.471-.584.136-1.014-1.067-.637a9.122,9.122,0,0,1-6.077-.39,7.273,7.273,0,0,1-2.651-1.912c-.084-.377-.168-.749-.258-1.106a.961.961,0,0,0-.977-.748,10.891,10.891,0,0,1-.6-6.672c.056-.365.118-.729.179-1.092l.02,0c.666-3.238,1.251-12.027,1.251-18.808h-.079C524.726,104.214,525.827,103.912,526.994,103.568Zm-6.442,39.587c-.97,6.389-1.8,12.193-2.725,16.371-1.709,7.738-3.622,10.959-7.558,23.572a14.313,14.313,0,0,0-.6,3.82,36.613,36.613,0,0,1-2.5,10.492,27.072,27.072,0,0,1-2.4,5.615,3.212,3.212,0,0,1-1.864,1.409s0,0-.007,0c-.528-.108,2.2-7.385,2.3-7.59.116-.249,0-.315-.376-.4-.25-.059-.452-.109-.521.145-.016.059-1.828,7.134-2.758,8.542a2.651,2.651,0,0,1-1.667.8,1.119,1.119,0,0,1-.386-.071c-.292-.507.923-3.282,1.575-5.253a33.621,33.621,0,0,1,1.384-3.857c.164-.2-.1-.4-.342-.485s-.519-.1-.535.164a42.346,42.346,0,0,1-1.283,4.228c-.652,1.975-1.3,4.653-1.737,5.175a2.3,2.3,0,0,1-1.045.3,1.255,1.255,0,0,1-.716-.216c-.231-.678.711-3.638,1.482-6.066.538-1.7,1.168-3.635,1.538-4.536.1-.244-.137-.287-.37-.4-.315-.15-.436-.15-.515.1-.346,1.1-.775,2.853-1.312,4.545-.861,2.713-1.295,5.17-1.752,5.258a2.932,2.932,0,0,1-.663-2.567,37.508,37.508,0,0,1,1.7-7.25,37.493,37.493,0,0,0,1.355-4.629h0c-.388.1-1.436,1.8-1.648,2.146-.3.479-1.372,2.368-2.805,2.368h-.04c-.831-.02-.936-.471-.449-1.257,1.209-1.81,2.585-5.115,3.668-6.666a11.431,11.431,0,0,1,4.366-3.881,4.249,4.249,0,0,0,2.132-2.825c.992-4.449,1.713-11.84,3.318-18.535,1.976-8.241,3.737-11.162,4.47-19.565.692-7.936,1.985-20.468,2.317-23.838,1.021-9.7,5.753-12.5,9.088-13.518l.234-.068c-.016,6.576-.594,15.243-1.229,18.327l.019,0a22.483,22.483,0,0,0-.5,3.16,10.525,10.525,0,0,0,1.038,5.3,1.033,1.033,0,0,0-.117.345C521.6,135.142,520.992,139.533,520.552,143.154Zm44.2,38.2c-6.579-.373-13.589,2.427-21.971,8.776a.311.311,0,0,0-.032,0q-.75.066-1.5.065h-.031q-.754,0-1.5-.065a.3.3,0,0,0-.149.026c-8.332-6.317-15.3-9.127-21.853-8.805a53.562,53.562,0,0,1,2.117-7.913c.387.062.823.134,1.322.217l.332.055a101.8,101.8,0,0,0,39.357,0l.488-.081c.486-.08.913-.15,1.3-.213A53.641,53.641,0,0,1,564.747,181.358Zm-23.539,9.856h.031q.391,0,.784-.017c-.424,7.172-.674,12.935-.8,18.07-.125-5.136-.376-10.9-.8-18.07Q540.816,191.214,541.208,191.214Zm-1.144,139.212c-.1,1.019-.548,1.624-1.857,1.857a3.064,3.064,0,0,1-.541.045,8.042,8.042,0,0,1-1.182-.122c.036-2.217.659-2.508.594-3.289-.08-.975-1.067-1.038-1.247-.078a14.683,14.683,0,0,0-.6,3.378,5.227,5.227,0,0,1-.58.035,4.905,4.905,0,0,1-1.435-.219,6.1,6.1,0,0,1,.235-2.563c.246-.742-.264-.647-.687,0a4.809,4.809,0,0,0-.755,2.31h0a6.05,6.05,0,0,1-1.822-.309,6.162,6.162,0,0,1,.262-2.2c.2-.608-.254-.578-.6-.05a4.8,4.8,0,0,0-.6,2.01,13.533,13.533,0,0,1-1.5-.406,5.987,5.987,0,0,1,.123-2.257c.2-.608-.085-.587-.432-.059a4.367,4.367,0,0,0-.627,1.829c-.429-.2-2.315-1.252-.8-3.587,1.2-1.732,5.65-8.727,5.687-9.884.151-4.743-.249-9.535-2.173-17.186-2.071-8.235-5.325-19.166-5.316-31.944,0-2.683.681-10.226.619-15.3.385-4.8-4.616-32.1-5.926-38.523-2.255-11.057-3.417-19.575-1.344-31.686,6.456-.385,13.39,2.443,21.79,8.894.018.015.042.021.062.034,1.264,21.368,1,29.945.437,47.581-.254,7.941-.622,15.615-.956,19.584-.375,4.458-.769,3.461.569,18.2,1.675,18.419-.936,33.208.347,41.644A75.887,75.887,0,0,1,540.064,330.426Zm1.68-27.219c.247,5.958.461,11.1-.1,14.8a73.693,73.693,0,0,0-.42,8.092,73.7,73.7,0,0,0-.42-8.092c-.562-3.7-.348-8.844-.1-14.8a196.756,196.756,0,0,0-.239-26.781c-1.131-12.456-1.014-13.585-.732-16.311.052-.495.108-1.042.164-1.71.329-3.912.7-11.436.96-19.637.151-4.726.282-8.819.367-12.712.085,3.893.215,7.986.367,12.712.263,8.2.631,15.725.96,19.637.056.668.113,1.215.164,1.71.282,2.727.4,3.855-.732,16.312A196.739,196.739,0,0,0,541.744,303.207Zm21.81-89.294c-1.31,6.425-6.311,33.721-5.926,38.523-.062,5.072.617,12.615.619,15.3.009,12.778-3.245,23.709-5.316,31.944-1.924,7.651-2.324,12.443-2.173,17.186.037,1.157,4.487,8.152,5.687,9.884,1.508,2.325-.3,3.347-.729,3.548a4.34,4.34,0,0,0-.624-1.79c-.347-.528-.634-.549-.432.059a5.724,5.724,0,0,1,.122,2.208,14.047,14.047,0,0,1-1.5.427,4.828,4.828,0,0,0-.6-1.981c-.346-.528-.8-.558-.6.05a6.189,6.189,0,0,1,.262,2.209,6.615,6.615,0,0,1-1.827.289,4.794,4.794,0,0,0-.753-2.3c-.423-.647-.933-.742-.687,0a5.867,5.867,0,0,1,.236,2.492,5.717,5.717,0,0,1-1.683.255c-.111,0-.222-.008-.333-.015a14.814,14.814,0,0,0-.6-3.362c-.18-.96-1.167-.9-1.247.078-.065.781.558,1.072.594,3.286a7.983,7.983,0,0,1-1.247.135,3.491,3.491,0,0,1-.63-.056,1.921,1.921,0,0,1-1.778-1.857,75.878,75.878,0,0,1,.267-12.264c1.282-8.436-1.328-23.225.347-41.644,1.338-14.737.944-13.741.569-18.2-.334-3.969-.7-11.643-.957-19.584-.566-17.664-.828-26.239.443-47.682,8.421-6.448,15.366-9.253,21.847-8.82C566.971,194.341,565.809,202.859,563.555,213.914Zm-7.807-59.354c-.207,4.319,3.634,9.946,6.571,18-.356.057-.737.12-1.168.191l-.489.081a100.778,100.778,0,0,1-39.018,0l-.374-.062-1.147-.189c2.939-8.07,6.787-13.7,6.578-18.026-.077-1.611-.392-8.165-1.212-14.616,9.449-.781,24.07-.417,31.633.021C556.29,146.37,555.823,152.985,555.747,154.56ZM588.7,194.885h-.04c-1.433,0-2.508-1.889-2.805-2.368-.212-.342-1.157-2-1.545-2.1h0A34.356,34.356,0,0,0,585.556,195a37.51,37.51,0,0,1,1.7,7.25,2.932,2.932,0,0,1-.663,2.567c-.456-.088-.891-2.545-1.752-5.258-.537-1.692-.966-3.448-1.312-4.545-.079-.251-.2-.251-.515-.1-.234.111-.47.154-.37.4.37.9,1,2.84,1.538,4.536.771,2.429,1.713,5.388,1.482,6.067a1.26,1.26,0,0,1-.716.215,2.3,2.3,0,0,1-1.046-.3c-.436-.522-1.085-3.2-1.737-5.175a42.32,42.32,0,0,1-1.282-4.228c-.016-.264-.293-.252-.535-.164s-.506.281-.342.485a33.852,33.852,0,0,1,1.384,3.857c.652,1.971,1.867,4.746,1.575,5.253a1.119,1.119,0,0,1-.385.071,2.654,2.654,0,0,1-1.668-.805c-.93-1.408-2.742-8.482-2.757-8.541-.069-.255-.271-.2-.521-.145-.374.088-.492.154-.375.4.1.205,2.824,7.483,2.3,7.59,0,0,0,0-.008,0a3.214,3.214,0,0,1-1.864-1.409,27.074,27.074,0,0,1-2.4-5.615,36.621,36.621,0,0,1-2.5-10.492,14.28,14.28,0,0,0-.6-3.82c-3.935-12.613-5.849-15.833-7.557-23.572-.923-4.177-1.755-9.982-2.725-16.371-.443-3.652-1.058-8.086-1.567-11.371a.965.965,0,0,0-.081-.24,10.345,10.345,0,0,0,1.053-5.272,23.883,23.883,0,0,0-.547-3.4c-.012-.053-.024-.106-.036-.16a135.626,135.626,0,0,1-1.162-17.984l.233.068c3.334,1.019,8.067,3.823,9.088,13.518.333,3.369,1.618,16.2,2.318,23.838.77,8.4,2.494,11.324,4.47,19.565,1.605,6.695,2.326,14.086,3.318,18.535a4.247,4.247,0,0,0,2.132,2.825,11.431,11.431,0,0,1,4.366,3.881c1.083,1.551,2.458,4.857,3.668,6.666C589.634,194.414,589.529,194.865,588.7,194.885Z" transform="translate(0 0)" fill="#a7a7a7"/>
  </g>
  <g id="Group_3584" data-name="Group 3584" transform="translate(-491.991 -20.507)">
    <path id="Path_2737-2" data-name="Path 2737" d="M594.624,414.279c-1.6,1.089-3.85.888-4.568.278-.308-.26-.4-.231-.216.072.406.654,1.156,1.657,1.957,1.724,1.58,0,2.22-.792,3.482-1.972C595.8,413.889,595.259,413.847,594.624,414.279Z" transform="translate(-54.072 -201.644)" fill="#a7a7a7"/>
    <path id="Path_2738-2" data-name="Path 2738" d="M562.252,414.557c-.718.61-2.967.81-4.568-.278-.635-.432-1.18-.39-.654.1,1.261,1.18,1.9,1.972,3.482,1.972.8-.067,1.551-1.07,1.957-1.724C562.656,414.327,562.559,414.3,562.252,414.557Z" transform="translate(-35.859 -201.644)" fill="#a7a7a7"/>
    <path id="Path_2739-2" data-name="Path 2739" d="M578.019,250.173a1.1,1.1,0,1,0,.809,1.059A.961.961,0,0,0,578.019,250.173Z" transform="translate(-47.138 -111.033)" fill="#a7a7a7"/>
    <path id="Path_2740-2" data-name="Path 2740" d="M564.764,88.093c.253.091.664.4.942.256.5-.255-.056-.837-.305-.975a6.194,6.194,0,0,0-3.162-.677,4.539,4.539,0,0,0-2.812,1.044c-.172.1-.359.418-.182.532s.492-.215.649-.282a5.894,5.894,0,0,1,1.61-.4A7.458,7.458,0,0,1,564.764,88.093Z" transform="translate(-37.162 -20.605)" fill="#a7a7a7"/>
    <path id="Path_2741-2" data-name="Path 2741" d="M565.754,92.35a2.763,2.763,0,0,1,.453.5c.1.154.213.265.329.062.142-.246-.4-.891-.593-1.062a3.162,3.162,0,0,0-4.476.478c-.14.249-.167.617.105.634.181.012.352-.169.512-.335a2.368,2.368,0,0,1,.975-.642,1.87,1.87,0,0,0-.069.507c0,.736.416,1.323,1.138,1.3.779-.021,1.127-.628,1.121-1.366a1.79,1.79,0,0,0-.05-.4A1.863,1.863,0,0,1,565.754,92.35Z" transform="translate(-38.374 -23.067)" fill="#a7a7a7"/>
    <path id="Path_2742-2" data-name="Path 2742" d="M585.118,88.349c.278.142.69-.165.942-.256a7.458,7.458,0,0,1,3.261-.5,5.9,5.9,0,0,1,1.61.4c.157.067.479.391.648.282s-.01-.428-.181-.532a4.54,4.54,0,0,0-2.812-1.044,6.192,6.192,0,0,0-3.162.677C585.174,87.513,584.619,88.095,585.118,88.349Z" transform="translate(-51.402 -20.605)" fill="#a7a7a7"/>
    <path id="Path_2743-2" data-name="Path 2743" d="M586.792,91.853c-.2.171-.735.816-.593,1.062.117.2.225.092.329-.062a2.768,2.768,0,0,1,.454-.5,1.865,1.865,0,0,1,.554-.32,1.794,1.794,0,0,0-.05.4c-.006.738.342,1.345,1.121,1.366.722.02,1.133-.567,1.138-1.3a1.861,1.861,0,0,0-.069-.507,2.369,2.369,0,0,1,.975.642c.16.165.331.346.513.335.272-.017.245-.384.1-.634A3.162,3.162,0,0,0,586.792,91.853Z" transform="translate(-52.098 -23.067)" fill="#a7a7a7"/>
    <path id="Path_2744-2" data-name="Path 2744" d="M575.592,92.892c.014.04.025.074.034.1a5.1,5.1,0,0,1,.248,1.429,9.161,9.161,0,0,1-.05,1.524c-.019.174-.088.654-.172,1.025l-.026.118a.069.069,0,0,0,.029.072.071.071,0,0,0,.037.011.069.069,0,0,0,.041-.013l.1-.072c.5-.373.612-1.673.623-1.82a4.663,4.663,0,0,0-.6-2.948.278.278,0,0,0-.357-.14.18.18,0,0,0-.086.232C575.493,92.6,575.555,92.783,575.592,92.892Z" transform="translate(-46.137 -23.624)" fill="#a7a7a7"/>
    <path id="Path_2745-2" data-name="Path 2745" d="M574.166,107.373a.96.96,0,0,0,.159.345.83.83,0,0,0,.572.312h.05a.7.7,0,0,0,.156-.017.528.528,0,0,1,.181.022c.156.042.3.084.371.108.026.014.05.028.078.04a1.724,1.724,0,0,0,.768.181,1.871,1.871,0,0,0,.754-.164l.094-.04h0a.1.1,0,0,0,.031-.006c.057-.021.224-.071.408-.12a.483.483,0,0,1,.24,0,.791.791,0,0,0,.162.037.592.592,0,0,0,.081,0,.811.811,0,0,0,.423-.126.758.758,0,0,0,.317-.474.563.563,0,0,0,.01-.193l-.005-.05h0a.31.31,0,0,0-.134-.211.137.137,0,0,0-.11,0,.283.283,0,0,0-.134.156l-.022.056a.1.1,0,0,1-.019.033.245.245,0,0,0-.021.033.429.429,0,0,1-.159.147.515.515,0,0,1-.051.021.37.37,0,0,0-.177-.178.255.255,0,0,0-.055-.015l-.019,0a.234.234,0,0,0-.114.01,1.061,1.061,0,0,0-.34.173,1.123,1.123,0,0,0-.161.126.153.153,0,0,0-.018,0,3.417,3.417,0,0,1-.989.2,1.913,1.913,0,0,1-.608-.067l-.087-.022a1.344,1.344,0,0,1-.135-.038l-.026-.009a1.069,1.069,0,0,0-.231-.195,1.043,1.043,0,0,0-.328-.168.261.261,0,0,0-.122-.012l-.019,0a.254.254,0,0,0-.055.015.363.363,0,0,0-.111.079.358.358,0,0,1-.033-.032.516.516,0,0,1-.115-.269l-.005-.035a.449.449,0,0,1-.009-.1l0-.064a.209.209,0,0,0-.118-.184c-.077-.035-.193-.01-.281.169a.683.683,0,0,0-.054.206A.963.963,0,0,0,574.166,107.373Z" transform="translate(-45.444 -31.653)" fill="#a7a7a7"/>
    <path id="Path_2746-2" data-name="Path 2746" d="M578.619,118.633a5.419,5.419,0,0,1-3.12,0c-.21-.06-.368-.032-.414.072-.013.031-.044.14.132.247l.059.036a3.072,3.072,0,0,0,1.768.551h.041a3.027,3.027,0,0,0,1.744-.543l.072-.044c.178-.108.146-.218.132-.248C579,118.618,578.869,118.558,578.619,118.633Z" transform="translate(-45.957 -38.253)" fill="#a7a7a7"/>
    <path id="Path_2747-2" data-name="Path 2747" d="M574.208,115.259a2.445,2.445,0,0,0,.551.082h.034a2.828,2.828,0,0,0,.568-.059,6.854,6.854,0,0,1,1.755,0,1.727,1.727,0,0,0,1.144-.2c.013-.008.026-.017.038-.023a.486.486,0,0,0,.26-.447.245.245,0,0,0-.1-.164.413.413,0,0,0-.306-.053l-.017,0a2.8,2.8,0,0,1-1.015.223c-.27.009-.56-.006-.841-.021-.17-.009-.34-.017-.5-.021h-.021a2.114,2.114,0,0,0-.505.034.849.849,0,0,0-.208.063.414.414,0,0,1-.2.043h-.011a.849.849,0,0,1-.285-.048c-.048-.014-.1-.03-.175-.048a2.182,2.182,0,0,0-.665-.043,4.6,4.6,0,0,1-2.246-.185l-.02,0a.32.32,0,0,0-.328.193.329.329,0,0,0,.042.317,1.657,1.657,0,0,0,1.281.357,6.239,6.239,0,0,0,.852-.012A3.86,3.86,0,0,1,574.208,115.259Z" transform="translate(-43.755 -35.925)" fill="#a7a7a7"/>
    <path id="Path_2748-2" data-name="Path 2748" d="M649.088,296.513a7.248,7.248,0,0,1-3.815-2.938.143.143,0,0,0-.264.093,3.252,3.252,0,0,0,1.425,2.073,7.916,7.916,0,0,0,2.576,1.045.143.143,0,0,0,.079-.273Z" transform="translate(-84.641 -135.003)" fill="#a7a7a7"/>
    <path id="Path_2749-2" data-name="Path 2749" d="M509.153,293.515a.143.143,0,0,0-.17.061,7.248,7.248,0,0,1-3.815,2.938.143.143,0,0,0,.051.277.147.147,0,0,0,.028,0,7.916,7.916,0,0,0,2.575-1.045,3.249,3.249,0,0,0,1.425-2.073A.143.143,0,0,0,509.153,293.515Z" transform="translate(-7.238 -135.003)" fill="#a7a7a7"/>
    <path id="Path_2750-2" data-name="Path 2750" d="M558.388,148.394c3.006.849,8.5,1.3,6.839.58-1.405-.612-5.23-.749-6.807-.78C558.037,148.187,558.019,148.29,558.388,148.394Z" transform="translate(-36.58 -54.624)" fill="#a7a7a7"/>
    <path id="Path_2751-2" data-name="Path 2751" d="M591.091,148.394c.368-.1.351-.207-.033-.2-1.577.031-5.4.168-6.807.779C582.593,149.7,588.085,149.243,591.091,148.394Z" transform="translate(-50.864 -54.624)" fill="#a7a7a7"/>
    <path id="Path_2752-2" data-name="Path 2752" d="M578.608,153.008c.333-.189.177-.42-.2-.473a1.941,1.941,0,0,1-.426-.107c-.359-.136-.5-.065-.279.252C577.906,152.981,578.213,153.233,578.608,153.008Z" transform="translate(-47.353 -56.93)" fill="#a7a7a7"/>
    <path id="Path_2753-2" data-name="Path 2753" d="M570.032,163.811l-.008-.012-.008-.012a28,28,0,0,1-1.443-2.636,24.387,24.387,0,0,0-1.487-2.685,9.873,9.873,0,0,0-3.758-3.34,2.573,2.573,0,0,1-1.29-1.712c-.327-1.47-.627-3.413-.945-5.471-.447-2.9-.954-6.187-1.7-9.3-.537-2.238-1.057-4.011-1.516-5.575a45.075,45.075,0,0,1-2.024-9.887c-.474-5.169-1.288-13.365-1.679-17.3l-.167-1.681c-.656-6.222-3.282-10.075-7.806-11.458-.356-.109-.842-.244-1.4-.4-2.164-.6-6.194-1.721-7.442-2.767a1.84,1.84,0,0,1-.576-1.393l-.065-5a15.324,15.324,0,0,0,3.222-3.2,15.378,15.378,0,0,0,1.465-3.66,5.589,5.589,0,0,0,2.7-3.565c.5-1.672.4-3.153-.245-3.963a1.854,1.854,0,0,0-.964-.626v-.011c.062-.539.146-1.277.212-2.668v-.024c.076-5.392-1.349-8.552-3.459-10.4a5.979,5.979,0,0,0-1.3-2.781c-1.526-1.831-4.066-2.84-7.151-2.84a9.225,9.225,0,0,0-7.384,3.256,5.872,5.872,0,0,0-1.152,2.592c-2.308,2.133-3.46,5.457-3.511,10.154v.023A19.382,19.382,0,0,0,519.4,68.2a1.863,1.863,0,0,0-.879.6c-.649.809-.74,2.291-.245,3.963a5.651,5.651,0,0,0,2.668,3.557,15.77,15.77,0,0,0,1.46,3.342,15.749,15.749,0,0,0,3.255,3.466l-.066,5.051a1.849,1.849,0,0,1-.576,1.4c-1.248,1.046-5.277,2.165-7.442,2.767-.563.156-1.049.291-1.4.4-4.524,1.383-7.15,5.236-7.805,11.453-.055.554-.141,1.409-.249,2.476-.4,4.015-1.159,11.488-1.6,16.517a43.56,43.56,0,0,1-2.013,9.872c-.463,1.567-.988,3.343-1.526,5.587-.746,3.111-1.253,6.4-1.7,9.3-.317,2.058-.617,4-.945,5.471a2.571,2.571,0,0,1-1.289,1.712,9.87,9.87,0,0,0-3.758,3.34,24.428,24.428,0,0,0-1.486,2.685,27.969,27.969,0,0,1-1.443,2.636l-.008.012-.007.012a1.551,1.551,0,0,0-.217,1.593,1.326,1.326,0,0,0,1.244.645h.051a2.521,2.521,0,0,0,1.589-.624,29.306,29.306,0,0,0-1.281,5.589,2.935,2.935,0,0,0,.9,2.827A1.9,1.9,0,0,0,496.374,175a2.546,2.546,0,0,0,1.1-.28.185.185,0,0,0,.079-.031,1.674,1.674,0,0,0,.705.152,3.012,3.012,0,0,0,2.144-1.149,3.146,3.146,0,0,0,2.432-1.527,16.291,16.291,0,0,0,1.64-3.649c.117-.335.232-.664.353-.983a30.127,30.127,0,0,0,2.044-8.617,10.782,10.782,0,0,1,.461-2.873c1.31-4.194,2.352-7.118,3.189-9.468a69.727,69.727,0,0,0,2.83-9.314c.647-2.93,1.223-6.749,1.89-11.171l.289-1.916,0-.012v-.012c.325-2.677.76-5.83,1.138-8.327.1.137.2.272.3.4a120.333,120.333,0,0,1,1.839,16.94c.1,1.981-1.04,4.468-2.478,7.615a55.522,55.522,0,0,0-4.721,13.788c-1.856,10.427-.7,17.639,1,25.982,1.052,5.158,5,26.791,4.7,30.444l0,.037v.038c.03,2.408-.156,5.574-.305,8.118-.1,1.706-.187,3.179-.187,4.05-.007,9.1,2.024,16.967,3.656,23.284.209.81.411,1.593.6,2.346a45.376,45.376,0,0,1,1.707,13.435c-.17.841-3.071,5.562-4.385,7.458l-.007.01-.007.01a2.84,2.84,0,0,0-.48,2.467,2.755,2.755,0,0,0,1.46,1.567,6.343,6.343,0,0,0,2.375.829c.134.031.267.07.4.11a5.671,5.671,0,0,0,1.7.284c.076,0,.153,0,.231,0a4.853,4.853,0,0,0,1.875.381,5.017,5.017,0,0,0,.952-.093c.152.011.32.036.5.062a6.344,6.344,0,0,0,.955.092,3.245,3.245,0,0,0,.572-.049,2.307,2.307,0,0,0,2.143-2.195c.075-.738.111-1.743.117-2.841.006,1.1.041,2.1.117,2.841a2.328,2.328,0,0,0,2.076,2.194,3.537,3.537,0,0,0,.647.058,6.182,6.182,0,0,0,.993-.1c.171-.027.334-.053.481-.064a4.565,4.565,0,0,0,.786.066,5.161,5.161,0,0,0,1.9-.356c.083,0,.166,0,.247,0a5.978,5.978,0,0,0,2.222-.405,6.759,6.759,0,0,0,2.414-.85,2.667,2.667,0,0,0,1.4-1.516,2.857,2.857,0,0,0-.489-2.483l-.007-.01-.007-.01c-1.313-1.9-4.215-6.617-4.384-7.458a45.374,45.374,0,0,1,1.707-13.435c.19-.754.391-1.536.6-2.346,1.632-6.318,3.663-14.18,3.656-23.284,0-.87-.087-2.344-.187-4.05-.149-2.544-.335-5.711-.305-8.119v-.038l0-.037c-.293-3.653,3.653-25.286,4.7-30.444,1.7-8.344,2.855-15.555,1-25.982a43.4,43.4,0,0,0-1.825-6.845l.01,0a.711.711,0,0,0-.061-.137c-.91-2.56-1.938-4.815-2.845-6.8-1.437-3.147-2.573-5.633-2.478-7.609a146.86,146.86,0,0,1,1.971-17.08c.048-.062.091-.128.136-.191l.039-.053c.377,2.493.81,5.635,1.134,8.3l0,.012,0,.012.289,1.914c.667,4.423,1.243,8.243,1.89,11.173a69.879,69.879,0,0,0,2.83,9.314c.837,2.35,1.88,5.274,3.189,9.468a10.779,10.779,0,0,1,.461,2.873,30.126,30.126,0,0,0,2.044,8.617c.12.319.235.648.353.982a16.276,16.276,0,0,0,1.64,3.649,3.146,3.146,0,0,0,2.432,1.527,3.012,3.012,0,0,0,2.144,1.149,1.675,1.675,0,0,0,.705-.152.185.185,0,0,0,.08.031,2.547,2.547,0,0,0,1.1.28,1.9,1.9,0,0,0,1.744-1.159,2.936,2.936,0,0,0,.9-2.827,29.31,29.31,0,0,0-1.281-5.589,2.523,2.523,0,0,0,1.589.624h.052a1.326,1.326,0,0,0,1.243-.645A1.551,1.551,0,0,0,570.032,163.811ZM543.418,72.552a5.751,5.751,0,0,1-1.747,2.784,47.262,47.262,0,0,0,1.142-6.439,1.1,1.1,0,0,1,.488.343A3.943,3.943,0,0,1,543.418,72.552ZM524.381,53.134a8.512,8.512,0,0,1,6.816-2.975c2.868,0,5.213.917,6.6,2.582a5.271,5.271,0,0,1,.916,1.613,13.792,13.792,0,0,0-7.2-1.821H530.9a12.969,12.969,0,0,0-7.288,1.994A5.428,5.428,0,0,1,524.381,53.134Zm6.519.228h.59c5.369.151,10.969,1.753,10.823,12.117-.007.139-.014.261-.021.387-.559-4.311-2.295-6.882-5.185-7.654a6.886,6.886,0,0,0-3.481-.079,11.6,11.6,0,0,1-2.44.23,10.028,10.028,0,0,1-2.379-.26,6.077,6.077,0,0,0-3.543.112c-1.2.371-4.573,1.415-5.285,8.01-.015-.237-.026-.486-.032-.746C520.056,55.376,525.524,53.512,530.9,53.361Zm-11.937,19.19a3.944,3.944,0,0,1,.117-3.312,1.107,1.107,0,0,1,.435-.327,38.948,38.948,0,0,0,1.123,6.365A5.847,5.847,0,0,1,518.963,72.552Zm4.114,6.659c-.87-1.436-2.056-4.258-2.676-9.5a.287.287,0,0,0,.037-.136c0-.113,0-.244,0-.392-.026-2.417-.1-8.835,5-10.409a5.517,5.517,0,0,1,3.251-.1,10.61,10.61,0,0,0,2.5.272,12.092,12.092,0,0,0,2.544-.239,6.319,6.319,0,0,1,3.226.068c3.3.881,4.966,4.422,4.948,10.524v.186a.289.289,0,0,0,.026.119c-.6,4.7-1.715,8.426-2.655,9.915-1.135,1.8-4.929,4.485-5.787,4.907a5.2,5.2,0,0,1-4.593,0C528.036,84.01,524.4,81.39,523.077,79.211ZM525.54,90.2a2.632,2.632,0,0,0,.866-2.014l.057-4.419a15.758,15.758,0,0,0,2.1,1.421,5.956,5.956,0,0,0,5.26,0,18.477,18.477,0,0,0,2.093-1.392l.057,4.389a2.632,2.632,0,0,0,.865,2.014A17.266,17.266,0,0,0,541.9,92.35c0,1.669-.241,8.443-3.975,12.259a8.984,8.984,0,0,1-6.686,2.654h-.1a8.984,8.984,0,0,1-6.686-2.655c-3.734-3.817-3.974-10.589-3.974-12.258A17.264,17.264,0,0,0,525.54,90.2Zm-5.681,2.34c0,2.021.3,8.635,4.133,12.553a9.6,9.6,0,0,0,7.145,2.85h.1a9.6,9.6,0,0,0,7.144-2.85c3.833-3.918,4.136-10.532,4.134-12.553.929.274,1.806.514,2.506.71h-.063a102.8,102.8,0,0,0,1,14.974l.008,0c.047.283.1.566.139.849a8.746,8.746,0,0,1-.46,5.311.707.707,0,0,0-.7.563c-.058.252-.114.514-.169.782a5.822,5.822,0,0,1-2.236,1.672,7.483,7.483,0,0,1-4.839.31c-.907-.262-1.971.08-.849.507a8.24,8.24,0,0,0,5.775.016,6.391,6.391,0,0,0,1.876-1.089v.007h0c-.211,1.177-.4,2.443-.577,3.733a218.417,218.417,0,0,0-25.351-.017c-.167-1.242-.358-2.468-.576-3.624a6.266,6.266,0,0,0,1.745.991,8.1,8.1,0,0,0,5.775-.016c1.172-.465.108-.807-.849-.507a7.263,7.263,0,0,1-4.839-.31,5.79,5.79,0,0,1-2.111-1.522c-.067-.3-.134-.6-.205-.881a.765.765,0,0,0-.778-.6,8.671,8.671,0,0,1-.478-5.312c.045-.29.094-.58.142-.87l.016,0a102.89,102.89,0,0,0,1-14.974h-.062C518.053,93.05,518.93,92.809,519.859,92.535Zm-5.129,31.517c-.772,5.087-1.435,9.708-2.169,13.034-1.361,6.161-2.884,8.725-6.017,18.767a11.4,11.4,0,0,0-.481,3.042,29.15,29.15,0,0,1-1.993,8.353,21.552,21.552,0,0,1-1.91,4.47,2.557,2.557,0,0,1-1.484,1.122l-.006,0c-.42-.086,1.752-5.88,1.828-6.043.092-.2,0-.251-.3-.321-.2-.047-.36-.087-.415.116-.013.047-1.455,5.679-2.2,6.8a2.111,2.111,0,0,1-1.328.641.891.891,0,0,1-.307-.057c-.232-.4.735-2.613,1.254-4.183a26.771,26.771,0,0,1,1.1-3.071c.13-.162-.079-.315-.272-.386s-.413-.08-.426.131a33.712,33.712,0,0,1-1.021,3.366,29.425,29.425,0,0,1-1.383,4.12,1.83,1.83,0,0,1-.832.239,1,1,0,0,1-.57-.172c-.184-.54.566-2.9,1.18-4.83.429-1.35.93-2.894,1.224-3.611.08-.194-.109-.228-.294-.317-.251-.119-.347-.119-.41.081-.275.873-.617,2.271-1.045,3.618-.685,2.16-1.031,4.116-1.395,4.186a2.334,2.334,0,0,1-.528-2.043,29.863,29.863,0,0,1,1.356-5.772,29.85,29.85,0,0,0,1.079-3.686h0c-.309.08-1.143,1.436-1.312,1.709-.237.382-1.093,1.885-2.233,1.885h-.032c-.661-.016-.745-.375-.357-1,.963-1.441,2.058-4.072,2.92-5.307a9.1,9.1,0,0,1,3.476-3.09,3.383,3.383,0,0,0,1.7-2.249c.79-3.542,1.364-9.427,2.642-14.757,1.573-6.561,2.975-8.887,3.559-15.577.551-6.319,1.58-16.3,1.845-18.979.813-7.719,4.581-9.951,7.236-10.762l.186-.055a103.243,103.243,0,0,1-.979,14.592l.015,0a17.9,17.9,0,0,0-.4,2.516,8.38,8.38,0,0,0,.827,4.217.823.823,0,0,0-.093.275C515.565,117.673,515.081,121.169,514.73,124.053Zm35.187,30.417c-5.238-.3-10.819,1.933-17.492,6.987a.25.25,0,0,0-.025,0q-.6.052-1.2.052h-.025q-.6,0-1.2-.052a.24.24,0,0,0-.119.021c-6.634-5.029-12.183-7.266-17.4-7.01a42.647,42.647,0,0,1,1.686-6.3l1.053.173.264.044a81.05,81.05,0,0,0,31.334,0l.389-.065c.387-.064.727-.12,1.038-.169A42.706,42.706,0,0,1,549.917,154.469Zm-18.741,7.847h.025q.312,0,.624-.013c-.337,5.71-.537,10.3-.636,14.387-.1-4.089-.3-8.677-.636-14.387Q530.864,162.316,531.176,162.316Zm-.911,110.836c-.083.811-.436,1.293-1.479,1.479a2.438,2.438,0,0,1-.43.036,6.4,6.4,0,0,1-.941-.1c.029-1.765.525-2,.473-2.619-.063-.776-.849-.827-.993-.062a11.691,11.691,0,0,0-.481,2.689,4.158,4.158,0,0,1-.462.028,3.905,3.905,0,0,1-1.143-.174,4.856,4.856,0,0,1,.187-2.041c.2-.591-.211-.515-.547,0a3.829,3.829,0,0,0-.6,1.839h0a4.817,4.817,0,0,1-1.451-.246,4.905,4.905,0,0,1,.208-1.753c.16-.484-.2-.46-.479-.04a3.826,3.826,0,0,0-.48,1.6,10.777,10.777,0,0,1-1.193-.324,4.766,4.766,0,0,1,.1-1.8c.161-.484-.067-.467-.344-.047a3.477,3.477,0,0,0-.5,1.456c-.342-.16-1.843-1-.637-2.856.955-1.379,4.5-6.949,4.528-7.87a46.408,46.408,0,0,0-1.73-13.683c-1.649-6.557-4.24-15.259-4.233-25.433,0-2.136.542-8.141.493-12.179.307-3.823-3.675-25.556-4.718-30.671-1.8-8.8-2.721-15.585-1.07-25.228,5.14-.307,10.661,1.945,17.349,7.081.015.012.033.017.05.027a333.87,333.87,0,0,1,.348,37.882c-.2,6.322-.5,12.432-.761,15.592-.3,3.549-.613,2.756.453,14.489,1.333,14.665-.745,26.439.276,33.156A60.419,60.419,0,0,1,530.265,273.152Zm1.337-21.671c.2,4.744.367,8.84-.08,11.785a58.668,58.668,0,0,0-.334,6.442,58.661,58.661,0,0,0-.334-6.442c-.447-2.944-.277-7.041-.08-11.785a156.655,156.655,0,0,0-.19-21.322c-.9-9.917-.807-10.816-.583-12.986.041-.394.086-.829.13-1.361.262-3.115.555-9.105.765-15.634.121-3.763.225-7.021.292-10.121.068,3.1.172,6.358.292,10.121.209,6.529.5,12.519.764,15.634.045.532.09.967.13,1.361.225,2.171.318,3.069-.583,12.987A156.639,156.639,0,0,0,531.6,251.481Zm17.365-71.092c-1.043,5.115-5.025,26.848-4.718,30.671-.05,4.038.491,10.043.492,12.179.007,10.173-2.584,18.876-4.233,25.433a46.413,46.413,0,0,0-1.73,13.683c.029.921,3.572,6.491,4.528,7.87,1.2,1.851-.24,2.665-.581,2.825a3.456,3.456,0,0,0-.5-1.425c-.277-.42-.5-.437-.344.047a4.557,4.557,0,0,1,.1,1.758,11.181,11.181,0,0,1-1.193.34,3.843,3.843,0,0,0-.479-1.577c-.276-.421-.638-.445-.478.04a4.928,4.928,0,0,1,.209,1.759,5.266,5.266,0,0,1-1.455.23,3.816,3.816,0,0,0-.6-1.829c-.336-.515-.743-.591-.547,0a4.671,4.671,0,0,1,.188,1.984,4.552,4.552,0,0,1-1.34.2c-.088,0-.177-.006-.265-.012a11.793,11.793,0,0,0-.481-2.677c-.143-.765-.93-.714-.993.062-.051.622.445.853.473,2.616a6.353,6.353,0,0,1-.993.108,2.78,2.78,0,0,1-.5-.044,1.529,1.529,0,0,1-1.415-1.479,60.417,60.417,0,0,1,.212-9.764c1.021-6.716-1.057-18.491.276-33.156,1.065-11.733.751-10.94.453-14.489-.266-3.16-.559-9.27-.762-15.592a334.009,334.009,0,0,1,.353-37.963c6.7-5.134,12.234-7.367,17.394-7.022C551.688,164.806,550.762,171.587,548.967,180.389Zm-6.216-47.256c-.165,3.439,2.893,7.919,5.231,14.334l-.93.152-.39.064a80.235,80.235,0,0,1-31.064,0l-.3-.05-.913-.15c2.34-6.425,5.4-10.909,5.237-14.352-.062-1.282-.312-6.5-.965-11.636a217.355,217.355,0,0,1,25.185.017C543.184,126.613,542.812,131.879,542.752,133.133Zm26.234,32.105h-.032c-1.141,0-2-1.5-2.233-1.885-.169-.273-.921-1.589-1.23-1.669h0a27.352,27.352,0,0,0,1,3.646,29.86,29.86,0,0,1,1.356,5.772,2.334,2.334,0,0,1-.528,2.043c-.363-.07-.709-2.026-1.395-4.186-.427-1.347-.769-2.745-1.044-3.618-.063-.2-.159-.2-.41-.081-.186.088-.375.122-.295.317.295.717.8,2.261,1.224,3.611.614,1.934,1.363,4.29,1.18,4.83a1,1,0,0,1-.57.172,1.834,1.834,0,0,1-.833-.239,29.5,29.5,0,0,1-1.383-4.12,33.686,33.686,0,0,1-1.021-3.366c-.013-.211-.234-.2-.426-.131s-.4.224-.272.386a26.959,26.959,0,0,1,1.1,3.071c.519,1.569,1.486,3.779,1.254,4.183a.891.891,0,0,1-.307.057,2.113,2.113,0,0,1-1.328-.641c-.74-1.121-2.183-6.753-2.2-6.8-.055-.2-.215-.163-.415-.116-.3.07-.391.123-.3.321.076.164,2.248,5.957,1.828,6.043,0,0,0,0-.006,0a2.559,2.559,0,0,1-1.484-1.122,21.556,21.556,0,0,1-1.91-4.47,29.157,29.157,0,0,1-1.993-8.353,11.368,11.368,0,0,0-.482-3.042c-3.133-10.042-4.657-12.606-6.017-18.767-.735-3.326-1.4-7.947-2.169-13.034-.353-2.908-.842-6.438-1.247-9.053a.769.769,0,0,0-.065-.191,8.237,8.237,0,0,0,.838-4.2,19.01,19.01,0,0,0-.436-2.7l-.029-.127a107.984,107.984,0,0,1-.925-14.318l.186.055c2.655.811,6.423,3.044,7.236,10.762.265,2.682,1.288,12.9,1.845,18.979.613,6.688,1.986,9.016,3.559,15.577,1.278,5.33,1.852,11.215,2.642,14.757a3.381,3.381,0,0,0,1.7,2.249,9.1,9.1,0,0,1,3.476,3.09c.862,1.235,1.957,3.867,2.92,5.307C569.731,164.864,569.647,165.222,568.986,165.239Z" transform="translate(0 0)" fill="#a7a7a7"/>
  </g>
  <g id="Group_3585" data-name="Group 3585" transform="translate(-251.991 -20.507)">
    <path id="Path_2737-3" data-name="Path 2737" d="M594.624,414.279c-1.6,1.089-3.85.888-4.568.278-.308-.26-.4-.231-.216.072.406.654,1.156,1.657,1.957,1.724,1.58,0,2.22-.792,3.482-1.972C595.8,413.889,595.259,413.847,594.624,414.279Z" transform="translate(-54.072 -201.644)" fill="#a7a7a7"/>
    <path id="Path_2738-3" data-name="Path 2738" d="M562.252,414.557c-.718.61-2.967.81-4.568-.278-.635-.432-1.18-.39-.654.1,1.261,1.18,1.9,1.972,3.482,1.972.8-.067,1.551-1.07,1.957-1.724C562.656,414.327,562.559,414.3,562.252,414.557Z" transform="translate(-35.859 -201.644)" fill="#a7a7a7"/>
    <path id="Path_2739-3" data-name="Path 2739" d="M578.019,250.173a1.1,1.1,0,1,0,.809,1.059A.961.961,0,0,0,578.019,250.173Z" transform="translate(-47.138 -111.033)" fill="#a7a7a7"/>
    <path id="Path_2740-3" data-name="Path 2740" d="M564.764,88.093c.253.091.664.4.942.256.5-.255-.056-.837-.305-.975a6.194,6.194,0,0,0-3.162-.677,4.539,4.539,0,0,0-2.812,1.044c-.172.1-.359.418-.182.532s.492-.215.649-.282a5.894,5.894,0,0,1,1.61-.4A7.458,7.458,0,0,1,564.764,88.093Z" transform="translate(-37.162 -20.605)" fill="#a7a7a7"/>
    <path id="Path_2741-3" data-name="Path 2741" d="M565.754,92.35a2.763,2.763,0,0,1,.453.5c.1.154.213.265.329.062.142-.246-.4-.891-.593-1.062a3.162,3.162,0,0,0-4.476.478c-.14.249-.167.617.105.634.181.012.352-.169.512-.335a2.368,2.368,0,0,1,.975-.642,1.87,1.87,0,0,0-.069.507c0,.736.416,1.323,1.138,1.3.779-.021,1.127-.628,1.121-1.366a1.79,1.79,0,0,0-.05-.4A1.863,1.863,0,0,1,565.754,92.35Z" transform="translate(-38.374 -23.067)" fill="#a7a7a7"/>
    <path id="Path_2742-3" data-name="Path 2742" d="M585.118,88.349c.278.142.69-.165.942-.256a7.458,7.458,0,0,1,3.261-.5,5.9,5.9,0,0,1,1.61.4c.157.067.479.391.648.282s-.01-.428-.181-.532a4.54,4.54,0,0,0-2.812-1.044,6.192,6.192,0,0,0-3.162.677C585.174,87.513,584.619,88.095,585.118,88.349Z" transform="translate(-51.402 -20.605)" fill="#a7a7a7"/>
    <path id="Path_2743-3" data-name="Path 2743" d="M586.792,91.853c-.2.171-.735.816-.593,1.062.117.2.225.092.329-.062a2.768,2.768,0,0,1,.454-.5,1.865,1.865,0,0,1,.554-.32,1.794,1.794,0,0,0-.05.4c-.006.738.342,1.345,1.121,1.366.722.02,1.133-.567,1.138-1.3a1.861,1.861,0,0,0-.069-.507,2.369,2.369,0,0,1,.975.642c.16.165.331.346.513.335.272-.017.245-.384.1-.634A3.162,3.162,0,0,0,586.792,91.853Z" transform="translate(-52.098 -23.067)" fill="#a7a7a7"/>
    <path id="Path_2744-3" data-name="Path 2744" d="M575.592,92.892c.014.04.025.074.034.1a5.1,5.1,0,0,1,.248,1.429,9.161,9.161,0,0,1-.05,1.524c-.019.174-.088.654-.172,1.025l-.026.118a.069.069,0,0,0,.029.072.071.071,0,0,0,.037.011.069.069,0,0,0,.041-.013l.1-.072c.5-.373.612-1.673.623-1.82a4.663,4.663,0,0,0-.6-2.948.278.278,0,0,0-.357-.14.18.18,0,0,0-.086.232C575.493,92.6,575.555,92.783,575.592,92.892Z" transform="translate(-46.137 -23.624)" fill="#a7a7a7"/>
    <path id="Path_2745-3" data-name="Path 2745" d="M574.166,107.373a.96.96,0,0,0,.159.345.83.83,0,0,0,.572.312h.05a.7.7,0,0,0,.156-.017.528.528,0,0,1,.181.022c.156.042.3.084.371.108.026.014.05.028.078.04a1.724,1.724,0,0,0,.768.181,1.871,1.871,0,0,0,.754-.164l.094-.04h0a.1.1,0,0,0,.031-.006c.057-.021.224-.071.408-.12a.483.483,0,0,1,.24,0,.791.791,0,0,0,.162.037.592.592,0,0,0,.081,0,.811.811,0,0,0,.423-.126.758.758,0,0,0,.317-.474.563.563,0,0,0,.01-.193l-.005-.05h0a.31.31,0,0,0-.134-.211.137.137,0,0,0-.11,0,.283.283,0,0,0-.134.156l-.022.056a.1.1,0,0,1-.019.033.245.245,0,0,0-.021.033.429.429,0,0,1-.159.147.515.515,0,0,1-.051.021.37.37,0,0,0-.177-.178.255.255,0,0,0-.055-.015l-.019,0a.234.234,0,0,0-.114.01,1.061,1.061,0,0,0-.34.173,1.123,1.123,0,0,0-.161.126.153.153,0,0,0-.018,0,3.417,3.417,0,0,1-.989.2,1.913,1.913,0,0,1-.608-.067l-.087-.022a1.344,1.344,0,0,1-.135-.038l-.026-.009a1.069,1.069,0,0,0-.231-.195,1.043,1.043,0,0,0-.328-.168.261.261,0,0,0-.122-.012l-.019,0a.254.254,0,0,0-.055.015.363.363,0,0,0-.111.079.358.358,0,0,1-.033-.032.516.516,0,0,1-.115-.269l-.005-.035a.449.449,0,0,1-.009-.1l0-.064a.209.209,0,0,0-.118-.184c-.077-.035-.193-.01-.281.169a.683.683,0,0,0-.054.206A.963.963,0,0,0,574.166,107.373Z" transform="translate(-45.444 -31.653)" fill="#a7a7a7"/>
    <path id="Path_2746-3" data-name="Path 2746" d="M578.619,118.633a5.419,5.419,0,0,1-3.12,0c-.21-.06-.368-.032-.414.072-.013.031-.044.14.132.247l.059.036a3.072,3.072,0,0,0,1.768.551h.041a3.027,3.027,0,0,0,1.744-.543l.072-.044c.178-.108.146-.218.132-.248C579,118.618,578.869,118.558,578.619,118.633Z" transform="translate(-45.957 -38.253)" fill="#a7a7a7"/>
    <path id="Path_2747-3" data-name="Path 2747" d="M574.208,115.259a2.445,2.445,0,0,0,.551.082h.034a2.828,2.828,0,0,0,.568-.059,6.854,6.854,0,0,1,1.755,0,1.727,1.727,0,0,0,1.144-.2c.013-.008.026-.017.038-.023a.486.486,0,0,0,.26-.447.245.245,0,0,0-.1-.164.413.413,0,0,0-.306-.053l-.017,0a2.8,2.8,0,0,1-1.015.223c-.27.009-.56-.006-.841-.021-.17-.009-.34-.017-.5-.021h-.021a2.114,2.114,0,0,0-.505.034.849.849,0,0,0-.208.063.414.414,0,0,1-.2.043h-.011a.849.849,0,0,1-.285-.048c-.048-.014-.1-.03-.175-.048a2.182,2.182,0,0,0-.665-.043,4.6,4.6,0,0,1-2.246-.185l-.02,0a.32.32,0,0,0-.328.193.329.329,0,0,0,.042.317,1.657,1.657,0,0,0,1.281.357,6.239,6.239,0,0,0,.852-.012A3.86,3.86,0,0,1,574.208,115.259Z" transform="translate(-43.755 -35.925)" fill="#a7a7a7"/>
    <path id="Path_2748-3" data-name="Path 2748" d="M649.088,296.513a7.248,7.248,0,0,1-3.815-2.938.143.143,0,0,0-.264.093,3.252,3.252,0,0,0,1.425,2.073,7.916,7.916,0,0,0,2.576,1.045.143.143,0,0,0,.079-.273Z" transform="translate(-84.641 -135.003)" fill="#a7a7a7"/>
    <path id="Path_2749-3" data-name="Path 2749" d="M509.153,293.515a.143.143,0,0,0-.17.061,7.248,7.248,0,0,1-3.815,2.938.143.143,0,0,0,.051.277.147.147,0,0,0,.028,0,7.916,7.916,0,0,0,2.575-1.045,3.249,3.249,0,0,0,1.425-2.073A.143.143,0,0,0,509.153,293.515Z" transform="translate(-7.238 -135.003)" fill="#a7a7a7"/>
    <path id="Path_2750-3" data-name="Path 2750" d="M558.388,148.394c3.006.849,8.5,1.3,6.839.58-1.405-.612-5.23-.749-6.807-.78C558.037,148.187,558.019,148.29,558.388,148.394Z" transform="translate(-36.58 -54.624)" fill="#a7a7a7"/>
    <path id="Path_2751-3" data-name="Path 2751" d="M591.091,148.394c.368-.1.351-.207-.033-.2-1.577.031-5.4.168-6.807.779C582.593,149.7,588.085,149.243,591.091,148.394Z" transform="translate(-50.864 -54.624)" fill="#a7a7a7"/>
    <path id="Path_2752-3" data-name="Path 2752" d="M578.608,153.008c.333-.189.177-.42-.2-.473a1.941,1.941,0,0,1-.426-.107c-.359-.136-.5-.065-.279.252C577.906,152.981,578.213,153.233,578.608,153.008Z" transform="translate(-47.353 -56.93)" fill="#a7a7a7"/>
    <path id="Path_2753-3" data-name="Path 2753" d="M570.032,163.811l-.008-.012-.008-.012a28,28,0,0,1-1.443-2.636,24.387,24.387,0,0,0-1.487-2.685,9.873,9.873,0,0,0-3.758-3.34,2.573,2.573,0,0,1-1.29-1.712c-.327-1.47-.627-3.413-.945-5.471-.447-2.9-.954-6.187-1.7-9.3-.537-2.238-1.057-4.011-1.516-5.575a45.075,45.075,0,0,1-2.024-9.887c-.474-5.169-1.288-13.365-1.679-17.3l-.167-1.681c-.656-6.222-3.282-10.075-7.806-11.458-.356-.109-.842-.244-1.4-.4-2.164-.6-6.194-1.721-7.442-2.767a1.84,1.84,0,0,1-.576-1.393l-.065-5a15.324,15.324,0,0,0,3.222-3.2,15.378,15.378,0,0,0,1.465-3.66,5.589,5.589,0,0,0,2.7-3.565c.5-1.672.4-3.153-.245-3.963a1.854,1.854,0,0,0-.964-.626v-.011c.062-.539.146-1.277.212-2.668v-.024c.076-5.392-1.349-8.552-3.459-10.4a5.979,5.979,0,0,0-1.3-2.781c-1.526-1.831-4.066-2.84-7.151-2.84a9.225,9.225,0,0,0-7.384,3.256,5.872,5.872,0,0,0-1.152,2.592c-2.308,2.133-3.46,5.457-3.511,10.154v.023A19.382,19.382,0,0,0,519.4,68.2a1.863,1.863,0,0,0-.879.6c-.649.809-.74,2.291-.245,3.963a5.651,5.651,0,0,0,2.668,3.557,15.77,15.77,0,0,0,1.46,3.342,15.749,15.749,0,0,0,3.255,3.466l-.066,5.051a1.849,1.849,0,0,1-.576,1.4c-1.248,1.046-5.277,2.165-7.442,2.767-.563.156-1.049.291-1.4.4-4.524,1.383-7.15,5.236-7.805,11.453-.055.554-.141,1.409-.249,2.476-.4,4.015-1.159,11.488-1.6,16.517a43.56,43.56,0,0,1-2.013,9.872c-.463,1.567-.988,3.343-1.526,5.587-.746,3.111-1.253,6.4-1.7,9.3-.317,2.058-.617,4-.945,5.471a2.571,2.571,0,0,1-1.289,1.712,9.87,9.87,0,0,0-3.758,3.34,24.428,24.428,0,0,0-1.486,2.685,27.969,27.969,0,0,1-1.443,2.636l-.008.012-.007.012a1.551,1.551,0,0,0-.217,1.593,1.326,1.326,0,0,0,1.244.645h.051a2.521,2.521,0,0,0,1.589-.624,29.306,29.306,0,0,0-1.281,5.589,2.935,2.935,0,0,0,.9,2.827A1.9,1.9,0,0,0,496.374,175a2.546,2.546,0,0,0,1.1-.28.185.185,0,0,0,.079-.031,1.674,1.674,0,0,0,.705.152,3.012,3.012,0,0,0,2.144-1.149,3.146,3.146,0,0,0,2.432-1.527,16.291,16.291,0,0,0,1.64-3.649c.117-.335.232-.664.353-.983a30.127,30.127,0,0,0,2.044-8.617,10.782,10.782,0,0,1,.461-2.873c1.31-4.194,2.352-7.118,3.189-9.468a69.727,69.727,0,0,0,2.83-9.314c.647-2.93,1.223-6.749,1.89-11.171l.289-1.916,0-.012v-.012c.325-2.677.76-5.83,1.138-8.327.1.137.2.272.3.4a120.333,120.333,0,0,1,1.839,16.94c.1,1.981-1.04,4.468-2.478,7.615a55.522,55.522,0,0,0-4.721,13.788c-1.856,10.427-.7,17.639,1,25.982,1.052,5.158,5,26.791,4.7,30.444l0,.037v.038c.03,2.408-.156,5.574-.305,8.118-.1,1.706-.187,3.179-.187,4.05-.007,9.1,2.024,16.967,3.656,23.284.209.81.411,1.593.6,2.346a45.376,45.376,0,0,1,1.707,13.435c-.17.841-3.071,5.562-4.385,7.458l-.007.01-.007.01a2.84,2.84,0,0,0-.48,2.467,2.755,2.755,0,0,0,1.46,1.567,6.343,6.343,0,0,0,2.375.829c.134.031.267.07.4.11a5.671,5.671,0,0,0,1.7.284c.076,0,.153,0,.231,0a4.853,4.853,0,0,0,1.875.381,5.017,5.017,0,0,0,.952-.093c.152.011.32.036.5.062a6.344,6.344,0,0,0,.955.092,3.245,3.245,0,0,0,.572-.049,2.307,2.307,0,0,0,2.143-2.195c.075-.738.111-1.743.117-2.841.006,1.1.041,2.1.117,2.841a2.328,2.328,0,0,0,2.076,2.194,3.537,3.537,0,0,0,.647.058,6.182,6.182,0,0,0,.993-.1c.171-.027.334-.053.481-.064a4.565,4.565,0,0,0,.786.066,5.161,5.161,0,0,0,1.9-.356c.083,0,.166,0,.247,0a5.978,5.978,0,0,0,2.222-.405,6.759,6.759,0,0,0,2.414-.85,2.667,2.667,0,0,0,1.4-1.516,2.857,2.857,0,0,0-.489-2.483l-.007-.01-.007-.01c-1.313-1.9-4.215-6.617-4.384-7.458a45.374,45.374,0,0,1,1.707-13.435c.19-.754.391-1.536.6-2.346,1.632-6.318,3.663-14.18,3.656-23.284,0-.87-.087-2.344-.187-4.05-.149-2.544-.335-5.711-.305-8.119v-.038l0-.037c-.293-3.653,3.653-25.286,4.7-30.444,1.7-8.344,2.855-15.555,1-25.982a43.4,43.4,0,0,0-1.825-6.845l.01,0a.711.711,0,0,0-.061-.137c-.91-2.56-1.938-4.815-2.845-6.8-1.437-3.147-2.573-5.633-2.478-7.609a146.86,146.86,0,0,1,1.971-17.08c.048-.062.091-.128.136-.191l.039-.053c.377,2.493.81,5.635,1.134,8.3l0,.012,0,.012.289,1.914c.667,4.423,1.243,8.243,1.89,11.173a69.879,69.879,0,0,0,2.83,9.314c.837,2.35,1.88,5.274,3.189,9.468a10.779,10.779,0,0,1,.461,2.873,30.126,30.126,0,0,0,2.044,8.617c.12.319.235.648.353.982a16.276,16.276,0,0,0,1.64,3.649,3.146,3.146,0,0,0,2.432,1.527,3.012,3.012,0,0,0,2.144,1.149,1.675,1.675,0,0,0,.705-.152.185.185,0,0,0,.08.031,2.547,2.547,0,0,0,1.1.28,1.9,1.9,0,0,0,1.744-1.159,2.936,2.936,0,0,0,.9-2.827,29.31,29.31,0,0,0-1.281-5.589,2.523,2.523,0,0,0,1.589.624h.052a1.326,1.326,0,0,0,1.243-.645A1.551,1.551,0,0,0,570.032,163.811ZM543.418,72.552a5.751,5.751,0,0,1-1.747,2.784,47.262,47.262,0,0,0,1.142-6.439,1.1,1.1,0,0,1,.488.343A3.943,3.943,0,0,1,543.418,72.552ZM524.381,53.134a8.512,8.512,0,0,1,6.816-2.975c2.868,0,5.213.917,6.6,2.582a5.271,5.271,0,0,1,.916,1.613,13.792,13.792,0,0,0-7.2-1.821H530.9a12.969,12.969,0,0,0-7.288,1.994A5.428,5.428,0,0,1,524.381,53.134Zm6.519.228h.59c5.369.151,10.969,1.753,10.823,12.117-.007.139-.014.261-.021.387-.559-4.311-2.295-6.882-5.185-7.654a6.886,6.886,0,0,0-3.481-.079,11.6,11.6,0,0,1-2.44.23,10.028,10.028,0,0,1-2.379-.26,6.077,6.077,0,0,0-3.543.112c-1.2.371-4.573,1.415-5.285,8.01-.015-.237-.026-.486-.032-.746C520.056,55.376,525.524,53.512,530.9,53.361Zm-11.937,19.19a3.944,3.944,0,0,1,.117-3.312,1.107,1.107,0,0,1,.435-.327,38.948,38.948,0,0,0,1.123,6.365A5.847,5.847,0,0,1,518.963,72.552Zm4.114,6.659c-.87-1.436-2.056-4.258-2.676-9.5a.287.287,0,0,0,.037-.136c0-.113,0-.244,0-.392-.026-2.417-.1-8.835,5-10.409a5.517,5.517,0,0,1,3.251-.1,10.61,10.61,0,0,0,2.5.272,12.092,12.092,0,0,0,2.544-.239,6.319,6.319,0,0,1,3.226.068c3.3.881,4.966,4.422,4.948,10.524v.186a.289.289,0,0,0,.026.119c-.6,4.7-1.715,8.426-2.655,9.915-1.135,1.8-4.929,4.485-5.787,4.907a5.2,5.2,0,0,1-4.593,0C528.036,84.01,524.4,81.39,523.077,79.211ZM525.54,90.2a2.632,2.632,0,0,0,.866-2.014l.057-4.419a15.758,15.758,0,0,0,2.1,1.421,5.956,5.956,0,0,0,5.26,0,18.477,18.477,0,0,0,2.093-1.392l.057,4.389a2.632,2.632,0,0,0,.865,2.014A17.266,17.266,0,0,0,541.9,92.35c0,1.669-.241,8.443-3.975,12.259a8.984,8.984,0,0,1-6.686,2.654h-.1a8.984,8.984,0,0,1-6.686-2.655c-3.734-3.817-3.974-10.589-3.974-12.258A17.264,17.264,0,0,0,525.54,90.2Zm-5.681,2.34c0,2.021.3,8.635,4.133,12.553a9.6,9.6,0,0,0,7.145,2.85h.1a9.6,9.6,0,0,0,7.144-2.85c3.833-3.918,4.136-10.532,4.134-12.553.929.274,1.806.514,2.506.71h-.063a102.8,102.8,0,0,0,1,14.974l.008,0c.047.283.1.566.139.849a8.746,8.746,0,0,1-.46,5.311.707.707,0,0,0-.7.563c-.058.252-.114.514-.169.782a5.822,5.822,0,0,1-2.236,1.672,7.483,7.483,0,0,1-4.839.31c-.907-.262-1.971.08-.849.507a8.24,8.24,0,0,0,5.775.016,6.391,6.391,0,0,0,1.876-1.089v.007h0c-.211,1.177-.4,2.443-.577,3.733a218.417,218.417,0,0,0-25.351-.017c-.167-1.242-.358-2.468-.576-3.624a6.266,6.266,0,0,0,1.745.991,8.1,8.1,0,0,0,5.775-.016c1.172-.465.108-.807-.849-.507a7.263,7.263,0,0,1-4.839-.31,5.79,5.79,0,0,1-2.111-1.522c-.067-.3-.134-.6-.205-.881a.765.765,0,0,0-.778-.6,8.671,8.671,0,0,1-.478-5.312c.045-.29.094-.58.142-.87l.016,0a102.89,102.89,0,0,0,1-14.974h-.062C518.053,93.05,518.93,92.809,519.859,92.535Zm-5.129,31.517c-.772,5.087-1.435,9.708-2.169,13.034-1.361,6.161-2.884,8.725-6.017,18.767a11.4,11.4,0,0,0-.481,3.042,29.15,29.15,0,0,1-1.993,8.353,21.552,21.552,0,0,1-1.91,4.47,2.557,2.557,0,0,1-1.484,1.122l-.006,0c-.42-.086,1.752-5.88,1.828-6.043.092-.2,0-.251-.3-.321-.2-.047-.36-.087-.415.116-.013.047-1.455,5.679-2.2,6.8a2.111,2.111,0,0,1-1.328.641.891.891,0,0,1-.307-.057c-.232-.4.735-2.613,1.254-4.183a26.771,26.771,0,0,1,1.1-3.071c.13-.162-.079-.315-.272-.386s-.413-.08-.426.131a33.712,33.712,0,0,1-1.021,3.366,29.425,29.425,0,0,1-1.383,4.12,1.83,1.83,0,0,1-.832.239,1,1,0,0,1-.57-.172c-.184-.54.566-2.9,1.18-4.83.429-1.35.93-2.894,1.224-3.611.08-.194-.109-.228-.294-.317-.251-.119-.347-.119-.41.081-.275.873-.617,2.271-1.045,3.618-.685,2.16-1.031,4.116-1.395,4.186a2.334,2.334,0,0,1-.528-2.043,29.863,29.863,0,0,1,1.356-5.772,29.85,29.85,0,0,0,1.079-3.686h0c-.309.08-1.143,1.436-1.312,1.709-.237.382-1.093,1.885-2.233,1.885h-.032c-.661-.016-.745-.375-.357-1,.963-1.441,2.058-4.072,2.92-5.307a9.1,9.1,0,0,1,3.476-3.09,3.383,3.383,0,0,0,1.7-2.249c.79-3.542,1.364-9.427,2.642-14.757,1.573-6.561,2.975-8.887,3.559-15.577.551-6.319,1.58-16.3,1.845-18.979.813-7.719,4.581-9.951,7.236-10.762l.186-.055a103.243,103.243,0,0,1-.979,14.592l.015,0a17.9,17.9,0,0,0-.4,2.516,8.38,8.38,0,0,0,.827,4.217.823.823,0,0,0-.093.275C515.565,117.673,515.081,121.169,514.73,124.053Zm35.187,30.417c-5.238-.3-10.819,1.933-17.492,6.987a.25.25,0,0,0-.025,0q-.6.052-1.2.052h-.025q-.6,0-1.2-.052a.24.24,0,0,0-.119.021c-6.634-5.029-12.183-7.266-17.4-7.01a42.647,42.647,0,0,1,1.686-6.3l1.053.173.264.044a81.05,81.05,0,0,0,31.334,0l.389-.065c.387-.064.727-.12,1.038-.169A42.706,42.706,0,0,1,549.917,154.469Zm-18.741,7.847h.025q.312,0,.624-.013c-.337,5.71-.537,10.3-.636,14.387-.1-4.089-.3-8.677-.636-14.387Q530.864,162.316,531.176,162.316Zm-.911,110.836c-.083.811-.436,1.293-1.479,1.479a2.438,2.438,0,0,1-.43.036,6.4,6.4,0,0,1-.941-.1c.029-1.765.525-2,.473-2.619-.063-.776-.849-.827-.993-.062a11.691,11.691,0,0,0-.481,2.689,4.158,4.158,0,0,1-.462.028,3.905,3.905,0,0,1-1.143-.174,4.856,4.856,0,0,1,.187-2.041c.2-.591-.211-.515-.547,0a3.829,3.829,0,0,0-.6,1.839h0a4.817,4.817,0,0,1-1.451-.246,4.905,4.905,0,0,1,.208-1.753c.16-.484-.2-.46-.479-.04a3.826,3.826,0,0,0-.48,1.6,10.777,10.777,0,0,1-1.193-.324,4.766,4.766,0,0,1,.1-1.8c.161-.484-.067-.467-.344-.047a3.477,3.477,0,0,0-.5,1.456c-.342-.16-1.843-1-.637-2.856.955-1.379,4.5-6.949,4.528-7.87a46.408,46.408,0,0,0-1.73-13.683c-1.649-6.557-4.24-15.259-4.233-25.433,0-2.136.542-8.141.493-12.179.307-3.823-3.675-25.556-4.718-30.671-1.8-8.8-2.721-15.585-1.07-25.228,5.14-.307,10.661,1.945,17.349,7.081.015.012.033.017.05.027a333.87,333.87,0,0,1,.348,37.882c-.2,6.322-.5,12.432-.761,15.592-.3,3.549-.613,2.756.453,14.489,1.333,14.665-.745,26.439.276,33.156A60.419,60.419,0,0,1,530.265,273.152Zm1.337-21.671c.2,4.744.367,8.84-.08,11.785a58.668,58.668,0,0,0-.334,6.442,58.661,58.661,0,0,0-.334-6.442c-.447-2.944-.277-7.041-.08-11.785a156.655,156.655,0,0,0-.19-21.322c-.9-9.917-.807-10.816-.583-12.986.041-.394.086-.829.13-1.361.262-3.115.555-9.105.765-15.634.121-3.763.225-7.021.292-10.121.068,3.1.172,6.358.292,10.121.209,6.529.5,12.519.764,15.634.045.532.09.967.13,1.361.225,2.171.318,3.069-.583,12.987A156.639,156.639,0,0,0,531.6,251.481Zm17.365-71.092c-1.043,5.115-5.025,26.848-4.718,30.671-.05,4.038.491,10.043.492,12.179.007,10.173-2.584,18.876-4.233,25.433a46.413,46.413,0,0,0-1.73,13.683c.029.921,3.572,6.491,4.528,7.87,1.2,1.851-.24,2.665-.581,2.825a3.456,3.456,0,0,0-.5-1.425c-.277-.42-.5-.437-.344.047a4.557,4.557,0,0,1,.1,1.758,11.181,11.181,0,0,1-1.193.34,3.843,3.843,0,0,0-.479-1.577c-.276-.421-.638-.445-.478.04a4.928,4.928,0,0,1,.209,1.759,5.266,5.266,0,0,1-1.455.23,3.816,3.816,0,0,0-.6-1.829c-.336-.515-.743-.591-.547,0a4.671,4.671,0,0,1,.188,1.984,4.552,4.552,0,0,1-1.34.2c-.088,0-.177-.006-.265-.012a11.793,11.793,0,0,0-.481-2.677c-.143-.765-.93-.714-.993.062-.051.622.445.853.473,2.616a6.353,6.353,0,0,1-.993.108,2.78,2.78,0,0,1-.5-.044,1.529,1.529,0,0,1-1.415-1.479,60.417,60.417,0,0,1,.212-9.764c1.021-6.716-1.057-18.491.276-33.156,1.065-11.733.751-10.94.453-14.489-.266-3.16-.559-9.27-.762-15.592a334.009,334.009,0,0,1,.353-37.963c6.7-5.134,12.234-7.367,17.394-7.022C551.688,164.806,550.762,171.587,548.967,180.389Zm-6.216-47.256c-.165,3.439,2.893,7.919,5.231,14.334l-.93.152-.39.064a80.235,80.235,0,0,1-31.064,0l-.3-.05-.913-.15c2.34-6.425,5.4-10.909,5.237-14.352-.062-1.282-.312-6.5-.965-11.636a217.355,217.355,0,0,1,25.185.017C543.184,126.613,542.812,131.879,542.752,133.133Zm26.234,32.105h-.032c-1.141,0-2-1.5-2.233-1.885-.169-.273-.921-1.589-1.23-1.669h0a27.352,27.352,0,0,0,1,3.646,29.86,29.86,0,0,1,1.356,5.772,2.334,2.334,0,0,1-.528,2.043c-.363-.07-.709-2.026-1.395-4.186-.427-1.347-.769-2.745-1.044-3.618-.063-.2-.159-.2-.41-.081-.186.088-.375.122-.295.317.295.717.8,2.261,1.224,3.611.614,1.934,1.363,4.29,1.18,4.83a1,1,0,0,1-.57.172,1.834,1.834,0,0,1-.833-.239,29.5,29.5,0,0,1-1.383-4.12,33.686,33.686,0,0,1-1.021-3.366c-.013-.211-.234-.2-.426-.131s-.4.224-.272.386a26.959,26.959,0,0,1,1.1,3.071c.519,1.569,1.486,3.779,1.254,4.183a.891.891,0,0,1-.307.057,2.113,2.113,0,0,1-1.328-.641c-.74-1.121-2.183-6.753-2.2-6.8-.055-.2-.215-.163-.415-.116-.3.07-.391.123-.3.321.076.164,2.248,5.957,1.828,6.043,0,0,0,0-.006,0a2.559,2.559,0,0,1-1.484-1.122,21.556,21.556,0,0,1-1.91-4.47,29.157,29.157,0,0,1-1.993-8.353,11.368,11.368,0,0,0-.482-3.042c-3.133-10.042-4.657-12.606-6.017-18.767-.735-3.326-1.4-7.947-2.169-13.034-.353-2.908-.842-6.438-1.247-9.053a.769.769,0,0,0-.065-.191,8.237,8.237,0,0,0,.838-4.2,19.01,19.01,0,0,0-.436-2.7l-.029-.127a107.984,107.984,0,0,1-.925-14.318l.186.055c2.655.811,6.423,3.044,7.236,10.762.265,2.682,1.288,12.9,1.845,18.979.613,6.688,1.986,9.016,3.559,15.577,1.278,5.33,1.852,11.215,2.642,14.757a3.381,3.381,0,0,0,1.7,2.249,9.1,9.1,0,0,1,3.476,3.09c.862,1.235,1.957,3.867,2.92,5.307C569.731,164.864,569.647,165.222,568.986,165.239Z" transform="translate(0 0)" fill="#a7a7a7"/>
  </g>
</svg>
